{
  "container": "ubuntu-20.04",
  "distro": "oniro-linux",
  "environment": {
    "TEMPLATECONF": "../oniro/flavours/linux"
  },
  "envsetup": "oe-core/oe-init-build-env",
  "machine": "qemux86-64",
  "sources": {
    "repo": {
      "branch": "kirkstone",
      "manifest": "default.xml",
      "url": "https://gitlab.eclipse.org/eclipse/oniro-core/oniro"
    }
  },
  "targets": "oniro-image-base-tests"
}
